
{
    "vscode-neovim.neovimExecutablePaths.linux": "/usr/bin/nvim",
    "editor.codeActionsOnSave": null,
    "editor.formatOnPaste": true,
    "editor.formatOnSave": true,
    "[typescript]": {
        "editor.defaultFormatter": "esbenp.prettier-vscode"
    },
    "editor.tabSize": 2,
    "security.workspace.trust.untrustedFiles": "open",
}